// Jest Snapshot v1, https://goo.gl/fbAQLP

exports[`ConsoleListItem renders correctly 1`] = `
<li
  className="consoleListItem"
>
  A simple test string for the ConsoleListItem component test.
</li>
`;
